module github.com/azunymous/arc

go 1.17

require (
	github.com/fatih/color v1.13.0 // indirect
	github.com/goccy/go-yaml v1.9.3
	github.com/gofiber/fiber/v2 v2.19.0
	github.com/google/go-github/v39 v39.1.0
	github.com/mattn/go-colorable v0.1.10 // indirect
	golang.org/x/sys v0.0.0-20210927094055-39ccf1dd6fa6 // indirect
)

require (
	github.com/andybalholm/brotli v1.0.2 // indirect
	github.com/google/go-querystring v1.1.0 // indirect
	github.com/klauspost/compress v1.13.4 // indirect
	github.com/mattn/go-isatty v0.0.14 // indirect
	github.com/valyala/bytebufferpool v1.0.0 // indirect
	github.com/valyala/fasthttp v1.29.0 // indirect
	github.com/valyala/tcplisten v1.0.0 // indirect
	golang.org/x/crypto v0.0.0-20210817164053-32db794688a5 // indirect
	golang.org/x/xerrors v0.0.0-20200804184101-5ec99f83aff1 // indirect
)
